{
    "relationship": {
        "source": {
            "id": 1349149096909668363,
            "id_str": "1349149096909668363",
            "screen_name": "POTUS",
            "following": true,
            "followed_by": true,
            "live_following": false,
            "following_received": null,
            "following_requested": null,
            "notifications_enabled": null,
            "can_dm": true,
            "blocking": null,
            "blocked_by": null,
            "muting": null,
            "want_retweets": null,
            "all_replies": null,
            "marked_spam": null
        },
        "target": {
            "id": 1349154719386775552,
            "id_str": "1349154719386775552",
            "screen_name": "FLOTUS",
            "following": true,
            "followed_by": true,
            "following_received": null,
            "following_requested": null
        }
    }
}